…
Here are some sequencing stats used for the resource announcement.

``` r
MRA.df = sample.meta %>%
  mutate(Collection_date = paste(Day, "Oct", Year)) %>%
  select(SequenceID, SiteID, Year, Collection_date, CoreTemp_C, FireClassification) %>%
  left_join(read.table("/Users/sambarnett/Documents/Shade_lab/Centralia_project/Metagenomics/Data/Contig_summaries.txt",
                       header=TRUE, sep="\t", quote="", comment.char="")) %>%
  left_join(readstats.df) %>%
  arrange(SiteID, Year) %>%
  select(-Year)
MRA.df
```

    ## # A tibble: 69 × 10
    ##    SequenceID         SiteID Collection_date CoreTemp_C FireClassification   N50
    ##    <chr>              <chr>  <chr>                <dbl> <chr>              <int>
    ##  1 Cen08_13102015_R1… Cen08  13 Oct 2015           12.7 Reference           2279
    ##  2 Cen08_12102016_R1… Cen08  12 Oct 2016           11.1 Reference           2683
    ##  3 Cen08_21102017_R1… Cen08  21 Oct 2017           13.3 Reference           2816
    ##  4 Cen08_04102018_R1… Cen08  4 Oct 2018            16.1 Reference           3067
    ##  5 Cen08_15102020_R1… Cen08  15 Oct 2020           11.6 Reference           3389
    ##  6 Cen08_06102021_R1… Cen08  6 Oct 2021            15.8 Reference           3720
    ##  7 Cen11_12102015_R1… Cen11  12 Oct 2015           27.4 FireAffected        2024
    ##  8 Cen11_11102016_R1… Cen11  11 Oct 2016           25.1 FireAffected        2221
    ##  9 Cen11_20102017_R1… Cen11  20 Oct 2017           23.2 FireAffected        2358
    ## 10 Cen11_03102018_R1… Cen11  3 Oct 2018            21.8 FireAffected        2626
    ## # ℹ 59 more rows
    ## # ℹ 4 more variables: Contig_count <int>, Total_length <int>,
    ## #   Longest_contig <int>, total_reads <int>
…
